…
    ## [1] 89

``` r
tab <- table(words[[1]])
tab <- data_frame(word = names(tab), count = as.numeric(tab))
```

    ## Warning: `data_frame()` was deprecated in tibble 1.1.0.
    ## Please use `tibble()` instead.

``` r
tab
```

    ## # A tibble: 71 x 2
    ##    word       count
    ##    <chr>      <dbl>
    ##  1 a              1
    ##  2 abuse          2
    ##  3 achieve        1
    ##  4 again          1
    ##  5 an             1
    ##  6 and            4
    ##  7 appreciate     1
    ##  8 approach       1
    ##  9 are            2
    ## 10 at             1
    ## # … with 61 more rows

``` r
arrange(tab, desc(count))
```

    ## # A tibble: 71 x 2
    ##    word  count
    ##    <chr> <dbl>
    ##  1 and       4
    ##  2 i         3
    ##  3 the       3
    ##  4 we        3
    ##  5 year      3
    ##  6 abuse     2
    ##  7 are       2
    ##  8 for       2
    ##  9 so        2
    ## 10 that      2
    ## # … with 61 more rows
…
``` r
words <- tokenize_words(text)
length(words[[1]])
```

    ## [1] 6113

``` r
tab <- table(words[[1]])
tab <- data_frame(word = names(tab), count = as.numeric(tab))
tab <- arrange(tab, desc(count))
tab
```

    ## # A tibble: 1,590 x 2
    ##    word  count
    ##    <chr> <dbl>
    ##  1 the     281
    ##  2 to      209
    ##  3 and     189
    ##  4 of      148
    ##  5 that    125
    ##  6 we      124
    ##  7 a       120
    ##  8 in      105
    ##  9 our      96
    ## 10 is       72
    ## # … with 1,580 more rows
…
    ## 
    ## ── Column specification ────────────────────────────────────────────────────────
    ## cols(
    ##   language = col_character(),
    ##   word = col_character(),
    ##   frequency = col_double()
    ## )

``` r
wf
```

    ## # A tibble: 150,000 x 3
    ##    language word  frequency
    ##    <chr>    <chr>     <dbl>
    ##  1 en       the       3.93 
    ##  2 en       of        2.24 
    ##  3 en       and       2.21 
    ##  4 en       to        2.06 
    ##  5 en       a         1.54 
    ##  6 en       in        1.44 
    ##  7 en       for       1.01 
    ##  8 en       is        0.800
    ##  9 en       on        0.638
    ## 10 en       that      0.578
    ## # … with 149,990 more rows

``` r
tab <- inner_join(tab, wf)
```

    ## Joining, by = "word"

``` r
tab
```

    ## # A tibble: 1,527 x 4
    ##    word  count language frequency
    ##    <chr> <dbl> <chr>        <dbl>
    ##  1 the     281 en           3.93 
    ##  2 to      209 en           2.06 
    ##  3 and     189 en           2.21 
    ##  4 of      148 en           2.24 
    ##  5 that    125 en           0.578
    ##  6 we      124 en           0.236
    ##  7 a       120 en           1.54 
    ##  8 in      105 en           1.44 
    ##  9 our      96 en           0.170
    ## 10 is       72 en           0.800
    ## # … with 1,517 more rows

``` r
filter(tab, frequency < 0.1)
```

    ## # A tibble: 1,457 x 4
    ##    word     count language frequency
    ##    <chr>    <dbl> <chr>        <dbl>
    ##  1 america     28 en          0.0232
    ##  2 people      27 en          0.0817
    ##  3 just        25 en          0.0787
    ##  4 world       23 en          0.0734
    ##  5 american    22 en          0.0387
    ##  6 work        22 en          0.0713
    ##  7 make        20 en          0.0689
    ##  8 want        19 en          0.0440
    ##  9 change      18 en          0.0358
    ## 10 years       18 en          0.0574
    ## # … with 1,447 more rows

``` r
print(filter(tab, frequency < 0.002), n = 15)
```

    ## # A tibble: 463 x 4
    ##    word        count language frequency
    ##    <chr>       <dbl> <chr>        <dbl>
    ##  1 laughter       11 en        0.000643
    ##  2 voices          8 en        0.00189 
    ##  3 allies          4 en        0.000844
    ##  4 harder          4 en        0.00152 
    ##  5 qaida           4 en        0.000183
    ##  6 terrorists      4 en        0.00122 
    ##  7 bipartisan      3 en        0.000145
    ##  8 generations     3 en        0.00123 
    ##  9 stamp           3 en        0.00166 
    ## 10 strongest       3 en        0.000591
    ## 11 syria           3 en        0.00136 
    ## 12 terrorist       3 en        0.00181 
    ## 13 tougher         3 en        0.000247
    ## 14 weaken          3 en        0.000181
    ## 15 accelerate      2 en        0.000544
    ## # … with 448 more rows
…
    ## 
    ## ── Column specification ────────────────────────────────────────────────────────
    ## cols(
    ##   president = col_character(),
    ##   year = col_double(),
    ##   party = col_character(),
    ##   sotu_type = col_character()
    ## )

``` r
metadata
```

    ## # A tibble: 236 x 4
    ##    president          year party       sotu_type
    ##    <chr>             <dbl> <chr>       <chr>    
    ##  1 George Washington  1790 Nonpartisan speech   
    ##  2 George Washington  1790 Nonpartisan speech   
    ##  3 George Washington  1791 Nonpartisan speech   
    ##  4 George Washington  1792 Nonpartisan speech   
    ##  5 George Washington  1793 Nonpartisan speech   
    ##  6 George Washington  1794 Nonpartisan speech   
    ##  7 George Washington  1795 Nonpartisan speech   
    ##  8 George Washington  1796 Nonpartisan speech   
    ##  9 John Adams         1797 Federalist  speech   
    ## 10 John Adams         1798 Federalist  speech   
    ## # … with 226 more rows
…
